^C:\PO51\C-AND-C\LESSON25 (НАСЛЕДОВАНИЕ)\НАСЛЕДОВАНИЕ\DEBUG\MAIN.OBJ
C:\PO51\C-AND-C\LESSON25 (наследование)\Наследование\DEBUG\Наследование.EXE
C:\PO51\C-AND-C\LESSON25 (наследование)\Наследование\DEBUG\Наследование.ILK
C:\PO51\C-AND-C\LESSON25 (НАСЛЕДОВАНИЕ)\НАСЛЕДОВАНИЕ\DEBUG\НАСЛЕДОВАНИЕ.PDB
