^C:\PO51\C-AND-C\LESSON27\HOMEANIMAL\MAIN.CPP
C:\PO51\C-AND-C\LESSON27\HOMEANIMAL\DEBUG\VC142.PDB
C:\PO51\C-AND-C\LESSON27\HOMEANIMAL\DEBUG\VC142.IDB
C:\PO51\C-AND-C\LESSON27\HOMEANIMAL\DEBUG\MAIN.OBJ
